[
  {
    "data": [
      {
        "text": "carbon",
        "alias": "emission_type",
        "meta": "@emission_type",
        "userDefined": false
      },
      {
        "text": " emissions ",
        "userDefined": false
      },
      {
        "text": "due",
        "meta": "@sys.ignore",
        "userDefined": false
      },
      {
        "text": " ",
        "userDefined": false
      },
      {
        "text": "to",
        "meta": "@sys.ignore",
        "userDefined": false
      },
      {
        "text": " ",
        "userDefined": false
      },
      {
        "text": "small",
        "alias": "size",
        "meta": "@appliance_specs",
        "userDefined": false
      },
      {
        "text": " ",
        "userDefined": false
      },
      {
        "text": "CFL",
        "alias": "type",
        "meta": "@appliance_specs",
        "userDefined": false
      },
      {
        "text": " ",
        "userDefined": false
      },
      {
        "text": "lighting",
        "alias": "appliance",
        "meta": "@appliances",
        "userDefined": false
      },
      {
        "text": " used ",
        "userDefined": false
      },
      {
        "text": "for",
        "meta": "@sys.ignore",
        "userDefined": false
      },
      {
        "text": " ",
        "userDefined": false
      },
      {
        "text": "23 hours",
        "alias": "duration",
        "meta": "@sys.duration",
        "userDefined": false
      },
      {
        "text": " in ",
        "userDefined": false
      },
      {
        "text": "India",
        "alias": "geo_country",
        "meta": "@sys.geo-country",
        "userDefined": false
      }
    ],
    "isTemplate": false,
    "count": 0,
    "updated": 1531204229
  },
  {
    "data": [
      {
        "text": "carbon",
        "alias": "emission_type",
        "meta": "@emission_type",
        "userDefined": false
      },
      {
        "text": " emissions ",
        "userDefined": false
      },
      {
        "text": "for",
        "meta": "@sys.ignore",
        "userDefined": false
      },
      {
        "text": " ",
        "userDefined": false
      },
      {
        "text": "3 hours",
        "alias": "duration",
        "meta": "@sys.duration",
        "userDefined": false
      },
      {
        "text": " usage of a ",
        "userDefined": false
      },
      {
        "text": "large",
        "alias": "type",
        "meta": "@appliance_specs",
        "userDefined": false
      },
      {
        "text": " ",
        "userDefined": false
      },
      {
        "text": "air conditioner",
        "alias": "appliance",
        "meta": "@appliances",
        "userDefined": false
      },
      {
        "text": " in ",
        "userDefined": false
      },
      {
        "text": "India",
        "alias": "geo_country",
        "meta": "@sys.geo-country",
        "userDefined": false
      }
    ],
    "isTemplate": false,
    "count": 0,
    "updated": 1530633490
  },
  {
    "data": [
      {
        "text": "emissions for a ",
        "userDefined": false
      },
      {
        "text": "small",
        "alias": "size",
        "meta": "@appliance_specs",
        "userDefined": false
      },
      {
        "text": " ",
        "userDefined": false
      },
      {
        "text": "CFL",
        "alias": "type",
        "meta": "@appliance_specs",
        "userDefined": false
      },
      {
        "text": " ",
        "userDefined": false
      },
      {
        "text": "lighting",
        "alias": "appliance",
        "meta": "@appliances",
        "userDefined": false
      },
      {
        "text": " in ",
        "userDefined": false
      },
      {
        "text": "China",
        "alias": "geo_country",
        "meta": "@sys.geo-country",
        "userDefined": false
      }
    ],
    "isTemplate": false,
    "count": 0,
    "updated": 1530633490
  },
  {
    "data": [
      {
        "text": "what is ",
        "userDefined": false
      },
      {
        "text": "Methane",
        "alias": "emission_type",
        "meta": "@emission_type",
        "userDefined": false
      },
      {
        "text": " emissions for a ",
        "userDefined": false
      },
      {
        "text": "fixed",
        "alias": "type",
        "meta": "@appliance_specs",
        "userDefined": false
      },
      {
        "text": " ",
        "userDefined": false
      },
      {
        "text": "air cooler",
        "alias": "appliance",
        "meta": "@appliances",
        "userDefined": false
      }
    ],
    "isTemplate": false,
    "count": 0,
    "updated": 1530633490
  },
  {
    "data": [
      {
        "text": "emissions for a ",
        "userDefined": false
      },
      {
        "text": "hair",
        "alias": "appliance",
        "meta": "@appliances",
        "userDefined": false
      },
      {
        "text": " ",
        "userDefined": false
      },
      {
        "text": "curler",
        "alias": "type",
        "meta": "@appliance_specs",
        "userDefined": false
      },
      {
        "text": " in ",
        "userDefined": false
      },
      {
        "text": "India",
        "alias": "geo_country",
        "meta": "@sys.geo-country",
        "userDefined": false
      }
    ],
    "isTemplate": false,
    "count": 0,
    "updated": 1530633490
  },
  {
    "data": [
      {
        "text": "what are different emissions for a ",
        "userDefined": false
      },
      {
        "text": "large",
        "alias": "size",
        "meta": "@appliance_specs",
        "userDefined": false
      },
      {
        "text": " ",
        "userDefined": false
      },
      {
        "text": "air conditioner",
        "alias": "appliance",
        "meta": "@appliances",
        "userDefined": false
      },
      {
        "text": " in ",
        "userDefined": false
      },
      {
        "text": "China",
        "alias": "geo_country",
        "meta": "@sys.geo-country",
        "userDefined": false
      }
    ],
    "isTemplate": false,
    "count": 0,
    "updated": 1530633490
  },
  {
    "data": [
      {
        "text": "what are emissions for ",
        "userDefined": false
      },
      {
        "text": "small",
        "alias": "size",
        "meta": "@appliance_specs",
        "userDefined": false
      },
      {
        "text": " ",
        "userDefined": false
      },
      {
        "text": "CFL",
        "alias": "type",
        "meta": "@appliance_specs",
        "userDefined": false
      },
      {
        "text": " ",
        "userDefined": false
      },
      {
        "text": "lighting",
        "alias": "appliance",
        "meta": "@appliances",
        "userDefined": false
      }
    ],
    "isTemplate": false,
    "count": 0,
    "updated": 1530633490
  },
  {
    "data": [
      {
        "text": "How much ",
        "userDefined": false
      },
      {
        "text": "methane",
        "alias": "emission_type",
        "meta": "@emission_type",
        "userDefined": false
      },
      {
        "text": " is emitted when a ",
        "userDefined": false
      },
      {
        "text": "fixed",
        "alias": "type",
        "meta": "@appliance_specs",
        "userDefined": false
      },
      {
        "text": " ",
        "userDefined": false
      },
      {
        "text": "air cooler",
        "alias": "appliance",
        "meta": "@appliances",
        "userDefined": false
      },
      {
        "text": " is used in ",
        "userDefined": false
      },
      {
        "text": "Pakistan",
        "alias": "geo_country",
        "meta": "@sys.geo-country",
        "userDefined": false
      }
    ],
    "isTemplate": false,
    "count": 0,
    "updated": 1530633490
  },
  {
    "data": [
      {
        "text": "what are emmisions for a ",
        "userDefined": false
      },
      {
        "text": "small",
        "alias": "size",
        "meta": "@appliance_specs",
        "userDefined": false
      },
      {
        "text": " ",
        "userDefined": false
      },
      {
        "text": "air conditioner",
        "alias": "appliance",
        "meta": "@appliances",
        "userDefined": false
      },
      {
        "text": " in ",
        "userDefined": false
      },
      {
        "text": "India",
        "alias": "geo_country",
        "meta": "@sys.geo-country",
        "userDefined": false
      }
    ],
    "isTemplate": false,
    "count": 0,
    "updated": 1530633490
  },
  {
    "data": [
      {
        "text": "carbon",
        "alias": "emission_type",
        "meta": "@emission_type",
        "userDefined": false
      },
      {
        "text": " emissions for a ",
        "userDefined": false
      },
      {
        "text": "11",
        "alias": "quantity",
        "meta": "@sys.number",
        "userDefined": false
      },
      {
        "text": " ",
        "userDefined": false
      },
      {
        "text": "small",
        "alias": "size",
        "meta": "@appliance_specs",
        "userDefined": false
      },
      {
        "text": " ",
        "userDefined": false
      },
      {
        "text": "CFL",
        "alias": "type",
        "meta": "@appliance_specs",
        "userDefined": false
      },
      {
        "text": " ",
        "userDefined": false
      },
      {
        "text": "lighting",
        "alias": "appliance",
        "meta": "@appliances",
        "userDefined": false
      },
      {
        "text": " for ",
        "userDefined": false
      },
      {
        "text": "10 hours",
        "alias": "duration",
        "meta": "@sys.duration",
        "userDefined": false
      },
      {
        "text": " of usage",
        "userDefined": false
      }
    ],
    "isTemplate": false,
    "count": 0,
    "updated": 1530633490
  },
  {
    "data": [
      {
        "text": "carbon",
        "alias": "emission_type",
        "meta": "@emission_type",
        "userDefined": false
      },
      {
        "text": " emissions for ",
        "userDefined": false
      },
      {
        "text": "7",
        "alias": "quantity",
        "meta": "@sys.number",
        "userDefined": true
      },
      {
        "text": " ",
        "userDefined": false
      },
      {
        "text": "large",
        "alias": "type",
        "meta": "@appliance_specs",
        "userDefined": false
      },
      {
        "text": " ",
        "userDefined": false
      },
      {
        "text": "air conditioners",
        "alias": "appliance",
        "meta": "@appliances",
        "userDefined": false
      },
      {
        "text": " in ",
        "userDefined": false
      },
      {
        "text": "India",
        "alias": "geo_country",
        "meta": "@sys.geo-country",
        "userDefined": false
      },
      {
        "text": " for ",
        "userDefined": false
      },
      {
        "text": "6 hours",
        "alias": "duration",
        "meta": "@sys.duration",
        "userDefined": false
      }
    ],
    "isTemplate": false,
    "count": 0,
    "updated": 1530633490
  },
  {
    "data": [
      {
        "text": "When two ",
        "userDefined": false
      },
      {
        "text": "large",
        "alias": "size",
        "meta": "@appliance_specs",
        "userDefined": false
      },
      {
        "text": " ",
        "userDefined": false
      },
      {
        "text": "air coolers",
        "alias": "appliance",
        "meta": "@appliances",
        "userDefined": false
      },
      {
        "text": " are used for ",
        "userDefined": false
      },
      {
        "text": "3 hours",
        "alias": "duration",
        "meta": "@sys.duration",
        "userDefined": false
      },
      {
        "text": " in ",
        "userDefined": false
      },
      {
        "text": "India",
        "alias": "geo_country",
        "meta": "@sys.geo-country",
        "userDefined": false
      },
      {
        "text": ", how much ",
        "userDefined": false
      },
      {
        "text": "N2O",
        "alias": "emission_type",
        "meta": "@emission_type",
        "userDefined": false
      },
      {
        "text": " is emitted?",
        "userDefined": false
      }
    ],
    "isTemplate": false,
    "count": 0,
    "updated": 1526928976
  },
  {
    "data": [
      {
        "text": "tell me the amount of ",
        "userDefined": false
      },
      {
        "text": "Methane",
        "alias": "emission_type",
        "meta": "@emission_type",
        "userDefined": false
      },
      {
        "text": " emitted when a ",
        "userDefined": false
      },
      {
        "text": "large",
        "alias": "size",
        "meta": "@appliance_specs",
        "userDefined": false
      },
      {
        "text": " ",
        "userDefined": false
      },
      {
        "text": "air cooler",
        "alias": "appliance",
        "meta": "@appliances",
        "userDefined": false
      },
      {
        "text": " is used for ",
        "userDefined": false
      },
      {
        "text": "2 hours",
        "alias": "duration",
        "meta": "@sys.duration",
        "userDefined": false
      }
    ],
    "isTemplate": false,
    "count": 0,
    "updated": 1526928976
  },
  {
    "data": [
      {
        "text": "please tell me ",
        "userDefined": false
      },
      {
        "text": "Co2",
        "alias": "emission_type",
        "meta": "@emission_type",
        "userDefined": false
      },
      {
        "text": " emission for an ",
        "userDefined": false
      },
      {
        "text": "exhaust",
        "alias": "type",
        "meta": "@appliance_specs",
        "userDefined": false
      },
      {
        "text": " ",
        "userDefined": false
      },
      {
        "text": "fan",
        "alias": "appliance",
        "meta": "@appliances",
        "userDefined": false
      },
      {
        "text": " in ",
        "userDefined": false
      },
      {
        "text": "Germany",
        "alias": "geo_country",
        "meta": "@sys.geo-country",
        "userDefined": false
      }
    ],
    "isTemplate": false,
    "count": 0,
    "updated": 1526928976
  },
  {
    "data": [
      {
        "text": "what are ",
        "userDefined": false
      },
      {
        "text": "carbon",
        "alias": "emission_type",
        "meta": "@emission_type",
        "userDefined": false
      },
      {
        "text": " emissions for ",
        "userDefined": false
      },
      {
        "text": "10",
        "alias": "quantity",
        "meta": "@sys.number",
        "userDefined": true
      },
      {
        "text": " ",
        "userDefined": false
      },
      {
        "text": "small",
        "alias": "size",
        "meta": "@appliance_specs",
        "userDefined": false
      },
      {
        "text": " ",
        "userDefined": false
      },
      {
        "text": "CFL",
        "alias": "type",
        "meta": "@appliance_specs",
        "userDefined": false
      },
      {
        "text": " lightings for ",
        "userDefined": false
      },
      {
        "text": "2 hours",
        "alias": "duration",
        "meta": "@sys.duration",
        "userDefined": false
      },
      {
        "text": " of usage",
        "userDefined": false
      }
    ],
    "isTemplate": false,
    "count": 0,
    "updated": 1526928976
  }
]